Retrieve Assay IDs (AIDs) from PubChem — get_aids • PubChemR
…
options
Additional arguments passed to get_json

    Value

If `as_data_frame` is TRUE, a tibble (data frame) where each row corresponds to a provided identifier and its AID.
        The tibble has columns 'CID' and 'AID'. If `as_data_frame` is FALSE, a list of AIDs is returned.

    Examples

get_aids(
  identifier = "aspirin",
  namespace = "name"
)
#> # A tibble: 3,033 × 3
#>    Compound   CID   AID
#>    <chr>    <dbl> <dbl>
#>  1 aspirin   2244     1
#>  2 aspirin   2244     3
#>  3 aspirin   2244     9
#>  4 aspirin   2244    15
#>  5 aspirin   2244    19
#>  6 aspirin   2244    21
#>  7 aspirin   2244    23
#>  8 aspirin   2244    25
#>  9 aspirin   2244    29
#> 10 aspirin   2244    31
#> # … with 3,023 more rows
…
