Working with PubChemR to Access Chemical Data • PubChemR
…
as_data_frame: A logical value indicating whether to
return the results as a tibble. Default is TRUE. options: Additional
arguments passed to the get_json function.

Usage Example

# Retrieve AIDs by CID
aids_result <- get_aids(
  identifier = "2244",
  namespace = "cid"
)

aids_result
#> # A tibble: 3,032 × 2
#>      CID   AID
#>    <dbl> <dbl>
#>  1  2244     1
#>  2  2244     3
#>  3  2244     9
#>  4  2244    15
#>  5  2244    19
#>  6  2244    21
#>  7  2244    23
#>  8  2244    25
#>  9  2244    29
#> 10  2244    31
#> # … with 3,022 more rows

# Retrieve AIDs by name
aids_result_name <- get_aids(
  identifier = "aspirin",
  namespace = "name"
)

aids_result_name
#> # A tibble: 3,032 × 3
#>    Compound   CID   AID
#>    <chr>    <dbl> <dbl>
#>  1 aspirin   2244     1
#>  2 aspirin   2244     3
#>  3 aspirin   2244     9
#>  4 aspirin   2244    15
#>  5 aspirin   2244    19
#>  6 aspirin   2244    21
#>  7 aspirin   2244    23
#>  8 aspirin   2244    25
#>  9 aspirin   2244    29
#> 10 aspirin   2244    31
#> # … with 3,022 more rows
…
options: Additional arguments passed to the internal
get_json function.

Usage Example

# Retrieve SIDs for a given compound name
sids <- get_sids(
  identifier = "aspirin",
  namespace = "name"
)

# Display the retrieved SIDs
sids
#> # A tibble: 385 × 3
#>    Compound   CID     SID
#>    <chr>    <dbl>   <dbl>
#>  1 aspirin   2244    4594
#>  2 aspirin   2244   87798
#>  3 aspirin   2244  476106
#>  4 aspirin   2244  602429
#>  5 aspirin   2244  829042
#>  6 aspirin   2244  832958
#>  7 aspirin   2244  840714
#>  8 aspirin   2244 3135921
#>  9 aspirin   2244 5261264
#> 10 aspirin   2244 7847177
#> # … with 375 more rows
…
